<?xml version="1.0" encoding="UTF-8"?>
<!-- Created with Inkscape (http://www.inkscape.org/) -->
<svg id="svg2" width="97.904" height="70.471" version="1.1" viewBox="0 0 97.904 70.471" xml:space="preserve" xmlns="http://www.w3.org/2000/svg"><g id="g10" transform="matrix(1.3333 0 0 -1.3333 -194.83 139.71)"><path id="path106991-2-9-2" d="m171.7 68.346-23.16-14.622" fill="none" stroke="#120458" stroke-width=".89009"/><path id="path97820" d="m164.95 73.443 19.841-12.313 19.84 12.313-19.84 12.313zm19.841-13.486-21.729 13.486 21.729 13.485 21.728-13.485-21.728-13.486" fill="#120458" stroke="#120458" stroke-width=".096678"/><path id="path106991-2-9" d="m216.57 94.528-22.801-15.316" fill="none" stroke="#120458" stroke-width=".89009"/><path id="path97822" d="m199.09 77.878-14.295-8.8706v17.742l14.295 8.8706v-17.742" fill="#120458"/><path id="path97824" d="m184.79 86.75-14.295 8.8706 14.295 8.8716 14.295-8.8716-14.295-8.8706" fill="#d9effb"/><path id="path97826" d="m184.79 69.008-14.295 8.8706v17.742l14.295-8.8706v-17.742" fill="#829dc7"/><path id="path73564-6-0-2-2" d="m218.11 92.943c-1.2262-0.76077-3.2143-0.76077-4.4405 0-1.2272 0.76077-1.2272 1.9956 0 2.7556 1.2262 0.76157 3.2143 0.76157 4.4405 0 1.2272-0.75997 1.2272-1.9948 0-2.7556" fill="#120458"/><path id="path73564-6-0-2-2-8" d="m174.13 67.028c-1.2262-0.76077-3.2143-0.76077-4.4405 0-1.2272 0.76077-1.2272 1.9956 0 2.7556 1.2262 0.76157 3.2143 0.76157 4.4405 0 1.2272-0.75996 1.2272-1.9948 0-2.7556" fill="#120458"/><path id="path73564-6-0-2-2-3" d="m151.82 52.842c-1.2262-0.76076-3.2143-0.76076-4.4405 0-1.2272 0.76077-1.2272 1.9956 0 2.7556 1.2262 0.76157 3.2143 0.76157 4.4405 0 1.2272-0.75996 1.2272-1.9948 0-2.7556" fill="#120458" stroke="#120458" stroke-width=".096678"/><path id="path125" d="m183.13 73.199-0.38606 0.36537-0.89436 1.4114c-0.4919 0.77634-0.90916 1.42-0.92723 1.4305-0.0181 0.01048-0.0961 0.0067-0.17326-0.0065-0.13626-0.02488-0.14281-0.0222-0.2218 0.09393-0.081 0.12045-0.0807 0.12131 0.0415 0.17649 0.0676 0.03121 0.12289 0.07367 0.12289 0.09592 0 0.02245-0.0823 0.1691-0.18311 0.32636l-0.18308 0.28592-0.19282 0.03732c-0.61649 0.1179-1.1933 0.42404-1.85 0.9821-0.48315 0.41045-0.96622 0.91997-1.1748 1.2393-0.14384 0.22029-0.15493 0.25367-0.15493 0.4671 0 0.24854-0.026 0.28515-0.20318 0.28656-0.0559 0.0018-0.13351 0.01824-0.17261 0.03989-0.27584 0.15998-0.97152 1.6305-2.213 4.6956-0.63344 1.564-2.7928 7.1428-2.7686 7.1528 0.0188 0.0075 0.17373-0.17425 1.5423-1.814 3.5853-4.2949 5.8611-7.297 6.2169-8.2006 0.0782-0.1989 0.0782-0.20103-3e-3 -0.31391-0.12589-0.1737-0.11677-0.19082 0.17523-0.32894 0.25481-0.12126 0.25929-0.12493 0.45991-0.3993 0.42003-0.57554 0.88076-1.5329 1.0566-2.1955 0.0891-0.33576 0.10275-0.45051 0.0882-0.74521-0.0193-0.39308-0.12398-0.60103-0.37744-0.75013-0.0789-0.0471-0.1436-0.10329-0.1436-0.12626 0-0.04695 0.33413-0.5253 0.3887-0.55696 0.0192-0.01116 0.11282 0.01116 0.20802 0.0494 0.17059 0.06845 0.1743 0.06762 0.2568-0.05606l0.0837-0.12407-0.19422-0.08466-0.19421-0.08446 0.46724-0.72754c0.25698-0.40003 0.80104-1.2453 1.209-1.8782 0.40799-0.63285 0.728-1.1418 0.71117-1.1309-0.0169 0.0098-0.20438 0.18386-0.41671 0.38529zm-3.3627 4.6715c0.12847-0.03368 0.23367-0.04774 0.23367-0.0305 0 0.01633-0.7856 1.3511-1.7458 2.964-0.96017 1.613-1.7381 2.9359-1.7288 2.9398 0.01 0.0053 0.85008-1.2966 1.8684-2.8901 1.0183-1.5937 1.88-2.9202 1.9147-2.9479 0.15051-0.12097 0.40643 0.11754 0.46241 0.42914 0.0442 0.24636-8e-5 0.6145-0.12112 1.0059-0.11214 0.36226-0.50259 1.1744-0.74822 1.5561l-0.18609 0.2891-0.53724 0.2238c-0.29548 0.12239-0.54345 0.23456-0.55104 0.2461-8e-3 0.01603 0.0866 0.16384 0.2094 0.33746l0.22323 0.31555-0.0727 0.16014c-0.15389 0.33921-0.86134 1.3405-1.8928 2.6791-0.90955 1.1802-2.8413 3.5778-2.919 3.6228-0.0592 0.03434-0.0679-0.01573-0.0679-0.39197v-0.43153l-0.27432 0.18672c-0.15086 0.10274-0.31544 0.22174-0.36573 0.26206-0.0532 0.04311-0.0915 0.05303-0.0915 0.02951 0-0.11296 1.456-3.7614 2.1409-5.3645 0.65711-1.5383 0.96562-2.1712 1.0949-2.2461 0.0317-0.01839 0.22295-0.04664 0.42513-0.06203l0.36755-0.02854-0.0328-0.27728c-0.018-0.15268-0.0329-0.37743-0.0331-0.49994l-3.3e-4 -0.22262 0.21408-0.25236c0.23009-0.27134 0.75669-0.7614 1.0863-1.0114 0.29832-0.2261 0.86001-0.52022 1.1278-0.59079l2e-5 -8e-6zm-5.8708 10.87-0.0122 0.42302-0.6502 0.79099c-0.56679 0.68973-0.79244 0.93451-0.79244 0.86 0-0.01089 0.17767-0.47906 0.3948-1.04l0.3948-1.0198 0.18429-0.12118c0.10139-0.06969 0.2535-0.16431 0.33809-0.21854l0.15383-0.1001-0.0122 0.42313z" fill="#1afe49" fill-rule="evenodd" stroke="#1afe49" stroke-width=".42358"/></g></svg>
