<?xml version="1.0" encoding="UTF-8"?>
<!-- Created with Inkscape (http://www.inkscape.org/) -->
<svg id="svg2" width="97.904" height="70.471" version="1.1" viewBox="0 0 97.904 70.471" xml:space="preserve" xmlns="http://www.w3.org/2000/svg"><g id="g10" transform="matrix(1.3333 0 0 -1.3333 -194.83 139.71)"><path id="path106991-2-9-2" d="m171.7 68.346-23.16-14.622" fill="none" stroke="#120458" stroke-width=".89009"/><path id="path97820" d="m164.95 73.443 19.841-12.313 19.84 12.313-19.84 12.313zm19.841-13.486-21.729 13.486 21.729 13.485 21.728-13.485-21.728-13.486" fill="#120458" stroke="#120458" stroke-width=".096678"/><path id="path106991-2-9" d="m216.57 94.528-22.801-15.316" fill="none" stroke="#120458" stroke-width=".89009"/><path id="path97822" d="m199.09 77.878-14.295-8.8706v17.742l14.295 8.8706v-17.742" fill="#120458"/><path id="path97824" d="m184.79 86.75-14.295 8.8706 14.295 8.8716 14.295-8.8716-14.295-8.8706" fill="#d9effb"/><path id="path97826" d="m184.79 69.008-14.295 8.8706v17.742l14.295-8.8706v-17.742" fill="#829dc7"/><path id="path73564-6-0-2-2" d="m218.11 92.943c-1.2262-0.76077-3.2143-0.76077-4.4405 0-1.2272 0.76077-1.2272 1.9956 0 2.7556 1.2262 0.76157 3.2143 0.76157 4.4405 0 1.2272-0.75997 1.2272-1.9948 0-2.7556" fill="#120458"/><path id="path73564-6-0-2-2-8" d="m174.13 67.028c-1.2262-0.76077-3.2143-0.76077-4.4405 0-1.2272 0.76077-1.2272 1.9956 0 2.7556 1.2262 0.76157 3.2143 0.76157 4.4405 0 1.2272-0.75996 1.2272-1.9948 0-2.7556" fill="#120458"/><path id="path73564-6-0-2-2-3" d="m151.82 52.842c-1.2262-0.76076-3.2143-0.76076-4.4405 0-1.2272 0.76077-1.2272 1.9956 0 2.7556 1.2262 0.76157 3.2143 0.76157 4.4405 0 1.2272-0.75996 1.2272-1.9948 0-2.7556" fill="#120458" stroke="#120458" stroke-width=".096678"/><g id="g910" transform="matrix(.020468 -.012158 0 .020468 174.09 82.209)" fill="#1afe49" fill-opacity=".97647" stroke-width="1.5152"><path id="path39" d="m398.48 136.68c-5.7727 31.349-22.71 61.997-46.627 84.375l-12.606 11.794 9.2712 10.118c32.628 35.608 86.385 50.302 117.21 32.038 13.792-8.1727 27.201-26.901 30.968-43.253 8.5236-36.995-16.881-74.445-64.599-95.228-7.8068-3.4002-29.293-10.829-31.321-10.829-0.14805 0-1.1795 4.9434-2.2921 10.985z"/><path id="path41" d="m163.69-121.25c-3.6279 0.75258-9.5439 3.0958-13.147 5.2072-25.8 15.12-27.62 53.679-3.3051 70.029 19.287 12.969 50.156 8.9292 62.233-8.144 6.4401-9.1046 8.2962-14.721 8.4149-25.466 0.29418-26.618-26.678-47.335-54.196-41.626z"/><path id="path43" d="m87.704-75.265c-28.986 14.633-50.459 30.206-70.498 51.13-24.127 25.193-37.245 47.779-45.655 78.611-4.172 15.295-3.7766 58.236 0.70213 76.262 7.0351 28.314 17.733 48.452 35.143 66.153 12.819 13.033 23.996 21.064 41.669 29.941 59.069 29.67 163.18 34.63 230.31 10.97 43.117-15.196 74.21-43.202 89.361-80.49 8.6383-21.259 10.599-33.208 10.532-64.198-0.058-26.954-0.3265-29.659-4.2127-42.426-8.4951-27.911-21.999-50.35-44.112-73.301-21.112-21.912-42.641-37.817-69.251-51.159-22.077-11.069-20.388-11.166-21.427 1.2276-2.0366 24.292-17.075 43.554-41.197 52.769-12.879 4.9199-35.332 5.0657-49.245 0.31977-24.47-8.3469-42.426-32.277-42.426-56.539 0-4.9533-0.62906-7.3977-1.894-7.3598-1.0417 0.0312-9.0535 3.6709-17.804 8.0884zm-6.3911 69.97c22.255 9.2965 27.037 39.686 8.6312 54.857-17.913 14.766-44.979 6.6341-51.557-15.49-2.9118-9.7933-1.6389-18.411 4.0424-27.37 7.717-12.168 25.408-17.627 38.883-11.998zm214.85 2.9374c17.908 10.495 20.274 36.008 4.6712 50.389-20.693 19.074-53.302 4.9254-53.244-23.103 0.0533-25.6 26.296-40.342 48.572-27.287z"/><path id="path45" d="m-66.849 130.02c-14.993 4.9066-35.71 15.042-45.457 22.24-29.024 21.431-42.701 51.433-36.238 79.487 3.7674 16.352 17.177 35.08 30.968 43.253 9.2521 5.4827 25.29 8.7484 37.847 7.7066 16.029-1.3298 27.174-4.6698 44.699-13.396 13.947-6.9444 17.749-9.757 30.816-22.797l14.907-14.876-13.51-12.718c-22.968-21.622-38.049-47.301-45.528-77.524-2.1374-8.638-4.2776-15.679-4.7558-15.647-0.47822 0.0319-6.6652 1.9547-13.749 4.2729z"/></g></g></svg>
