<?xml version="1.0" encoding="UTF-8"?>
<!-- Created with Inkscape (http://www.inkscape.org/) -->
<svg id="svg2" width="97.904" height="70.471" version="1.1" viewBox="0 0 97.904 70.471" xml:space="preserve" xmlns="http://www.w3.org/2000/svg"><g id="g10" transform="matrix(1.3333 0 0 -1.3333 -194.83 139.71)"><path id="path106991-2-9-2" d="m171.7 68.346-23.16-14.622" fill="none" stroke="#120458" stroke-width=".89009"/><path id="path97820" d="m164.95 73.443 19.841-12.313 19.84 12.313-19.84 12.313zm19.841-13.486-21.729 13.486 21.729 13.485 21.728-13.485-21.728-13.486" fill="#120458" stroke="#120458" stroke-width=".096678"/><path id="path106991-2-9" d="m216.57 94.528-22.801-15.316" fill="none" stroke="#120458" stroke-width=".89009"/><path id="path97822" d="m199.09 77.878-14.295-8.8706v17.742l14.295 8.8706v-17.742" fill="#120458"/><path id="path97824" d="m184.79 86.75-14.295 8.8706 14.295 8.8716 14.295-8.8716-14.295-8.8706" fill="#d9effb"/><path id="path97826" d="m184.79 69.008-14.295 8.8706v17.742l14.295-8.8706v-17.742" fill="#829dc7"/><path id="path73564-6-0-2-2" d="m218.11 92.943c-1.2262-0.76077-3.2143-0.76077-4.4405 0-1.2272 0.76077-1.2272 1.9956 0 2.7556 1.2262 0.76157 3.2143 0.76157 4.4405 0 1.2272-0.75997 1.2272-1.9948 0-2.7556" fill="#120458"/><path id="path73564-6-0-2-2-8" d="m174.13 67.028c-1.2262-0.76077-3.2143-0.76077-4.4405 0-1.2272 0.76077-1.2272 1.9956 0 2.7556 1.2262 0.76157 3.2143 0.76157 4.4405 0 1.2272-0.75996 1.2272-1.9948 0-2.7556" fill="#120458"/><path id="path73564-6-0-2-2-3" d="m151.82 52.842c-1.2262-0.76076-3.2143-0.76076-4.4405 0-1.2272 0.76077-1.2272 1.9956 0 2.7556 1.2262 0.76157 3.2143 0.76157 4.4405 0 1.2272-0.75996 1.2272-1.9948 0-2.7556" fill="#120458" stroke="#120458" stroke-width=".096678"/><path id="path125" d="m177.62 79.919a0.77631 1.4583 38.938 0 1 1.0976 0.35268c0 0.57248-0.49389 1.3369-1.0976 1.7103a0.77631 1.4583 38.938 0 1-1.0976-0.35268 0.77631 1.4583 38.938 0 1 1.0976-1.7103m3.2926 2.6053a0.77631 1.4583 38.938 0 0 1.0976-1.7103v-5.1574a0.77631 1.4583 38.938 0 0-1.0976-0.35268l-6.5852 4.0727a0.77631 1.4583 38.938 0 0-1.0976 1.7103v5.1574c0 0.57246 0.49389 0.72602 1.0976 0.35267l0.54877-0.3394v1.0315a1.9408 3.6457 38.936 0 0 2.7438 0.88177 1.9408 3.6457 38.936 0 0 2.7438-4.2757v-1.0315l0.54876-0.33939m-3.2926 4.6151a1.1645 2.1875 38.937 0 1-1.6463-0.52905v-1.0315l3.2926-2.0364v1.0315a1.1645 2.1875 38.937 0 1-1.6463 2.5654z" fill="#1afe49" stroke-width=".532"/></g></svg>
