<?xml version="1.0" encoding="UTF-8"?>
<!-- Created with Inkscape (http://www.inkscape.org/) -->
<svg id="svg2" width="97.904" height="70.471" version="1.1" viewBox="0 0 97.904 70.471" xml:space="preserve" xmlns="http://www.w3.org/2000/svg"><g id="g10" transform="matrix(1.3333 0 0 -1.3333 -194.83 139.71)"><path id="path106991-2-9-2" d="m171.7 68.346-23.16-14.622" fill="none" stroke="#120458" stroke-width=".89009"/><path id="path97820" d="m164.95 73.443 19.841-12.313 19.84 12.313-19.84 12.313zm19.841-13.486-21.729 13.486 21.729 13.485 21.728-13.485-21.728-13.486" fill="#120458" stroke="#120458" stroke-width=".096678"/><path id="path106991-2-9" d="m216.57 94.528-22.801-15.316" fill="none" stroke="#120458" stroke-width=".89009"/><path id="path97822" d="m199.09 77.878-14.295-8.8706v17.742l14.295 8.8706v-17.742" fill="#120458"/><path id="path97824" d="m184.79 86.75-14.295 8.8706 14.295 8.8716 14.295-8.8716-14.295-8.8706" fill="#d9effb"/><path id="path97826" d="m184.79 69.008-14.295 8.8706v17.742l14.295-8.8706v-17.742" fill="#829dc7"/><path id="path73564-6-0-2-2" d="m218.11 92.943c-1.2262-0.76077-3.2143-0.76077-4.4405 0-1.2272 0.76077-1.2272 1.9956 0 2.7556 1.2262 0.76157 3.2143 0.76157 4.4405 0 1.2272-0.75997 1.2272-1.9948 0-2.7556" fill="#120458"/><path id="path73564-6-0-2-2-8" d="m174.13 67.028c-1.2262-0.76077-3.2143-0.76077-4.4405 0-1.2272 0.76077-1.2272 1.9956 0 2.7556 1.2262 0.76157 3.2143 0.76157 4.4405 0 1.2272-0.75996 1.2272-1.9948 0-2.7556" fill="#120458"/><path id="path73564-6-0-2-2-3" d="m151.82 52.842c-1.2262-0.76076-3.2143-0.76076-4.4405 0-1.2272 0.76077-1.2272 1.9956 0 2.7556 1.2262 0.76157 3.2143 0.76157 4.4405 0 1.2272-0.75996 1.2272-1.9948 0-2.7556" fill="#120458" stroke="#120458" stroke-width=".096678"/><path id="path125" d="m173.91 90.091c-0.14245 0.09337-0.25669 0.05401-0.25669-0.08844v-1.364c-0.075 0.0052-0.13517-0.01634-0.17953-0.06185l-1.364 0.89403c-0.14245 0.09337-0.25669 0.05401-0.25669-0.08844s0.11424-0.33157 0.25669-0.42494l1.2851-0.84235v-0.51506l-1.2851 0.84235c-0.14245 0.09337-0.25669 0.05401-0.25669-0.08844s0.11424-0.33157 0.25669-0.42494l1.2851-0.84235v-0.51507l-1.2851 0.84235c-0.14245 0.09336-0.25669 0.05401-0.25669-0.08844s0.11424-0.33157 0.25669-0.42494l1.2851-0.84235v-0.51506l-1.2851 0.84235c-0.14245 0.09336-0.25669 0.05401-0.25669-0.08844s0.11424-0.33157 0.25669-0.42494l1.2851-0.84235v-0.51507l-1.2851 0.84235c-0.14245 0.09336-0.25669 0.054-0.25669-0.08844 0-0.14245 0.11424-0.33157 0.25669-0.42494l1.2851-0.84235v-0.51507l-1.2851 0.84235c-0.14245 0.09336-0.25669 0.05401-0.25669-0.08844s0.11424-0.33157 0.25669-0.42494l1.2851-0.84235v-0.51507l-1.2851 0.84235c-0.14245 0.09337-0.25669 0.05401-0.25669-0.08844s0.11424-0.33157 0.25669-0.42494l1.2851-0.84235v-0.51507l-1.2851 0.84235c-0.14245 0.09336-0.25669 0.05401-0.25669-0.08844s0.11424-0.33157 0.25669-0.42494l1.3623-0.89293c0.0445-0.10482 0.10546-0.20585 0.1812-0.29996v-1.364c0-0.14245 0.11424-0.33157 0.25669-0.42494 0.14245-0.09338 0.25669-0.05401 0.25669 0.08844v1.2868l0.51507-0.3376v-1.2868c0-0.14245 0.11424-0.33157 0.25669-0.42494 0.14245-0.09336 0.2567-0.05401 0.2567 0.08844v1.2868l0.51506-0.3376v-1.2868c0-0.14245 0.11424-0.33157 0.25669-0.42494 0.14245-0.09336 0.25669-0.05401 0.25669 0.08844v1.2868l0.51507-0.33761v-1.2868c0-0.14245 0.11424-0.33157 0.25669-0.42494 0.14245-0.09336 0.25669-0.05401 0.25669 0.08844v1.2868l0.51507-0.3376v-1.2868c0-0.14245 0.11424-0.33157 0.25669-0.42494 0.14245-0.09336 0.25669-0.05401 0.25669 0.08844v1.2868l0.51507-0.33761v-1.2868c0-0.14245 0.11424-0.33157 0.25669-0.42494 0.14245-0.09337 0.25669-0.05401 0.25669 0.08844v1.2868l0.51507-0.3376v-1.2868c0-0.14245 0.11424-0.33157 0.25669-0.42494 0.14245-0.09336 0.25669-0.05401 0.25669 0.08844v1.2868l0.51507-0.3376v-1.2868c0-0.14245 0.11424-0.33157 0.25669-0.42494 0.14245-0.09336 0.25669-0.05401 0.25669 0.08844v1.364c0.0756-0.0051 0.13673 0.01589 0.1812 0.06244l1.3623-0.89294c0.14245-0.09337 0.25669-0.054 0.25669 0.08844 0 0.14245-0.11424 0.33157-0.25669 0.42494l-1.2852 0.84236v0.51507l1.2852-0.84236c0.14245-0.09336 0.25669-0.05401 0.25669 0.08844s-0.11424 0.33157-0.25669 0.42494l-1.2852 0.84236v0.51507l1.2852-0.84236c0.14245-0.09336 0.25669-0.05401 0.25669 0.08844s-0.11424 0.33157-0.25669 0.42494l-1.2852 0.84236v0.51507l1.2852-0.84236c0.14245-0.09336 0.25669-0.05401 0.25669 0.08844s-0.11424 0.33157-0.25669 0.42494l-1.2852 0.84236v0.51507l1.2852-0.84236c0.14245-0.09336 0.25669-0.05401 0.25669 0.08844 0 0.14246-0.11424 0.33158-0.25669 0.42495l-1.2852 0.84236v0.51506l1.2852-0.84236c0.14245-0.09336 0.25669-0.05401 0.25669 0.08844 0 0.14245-0.11424 0.33157-0.25669 0.42494l-1.2852 0.84236v0.51507l1.2852-0.84236c0.14245-0.09336 0.25669-0.05401 0.25669 0.08844s-0.11424 0.33157-0.25669 0.42494l-1.2852 0.84236v0.51506l1.2852-0.84236c0.14245-0.09336 0.25669-0.05401 0.25669 0.08844s-0.11424 0.33157-0.25669 0.42494l-1.364 0.89404c-0.0443 0.10375-0.1045 0.2041-0.17952 0.29719v1.364c0 0.14245-0.11424 0.33157-0.25669 0.42494-0.14245 0.09336-0.25669 0.05401-0.25669-0.08844v-1.2868l-0.51507 0.33761v1.2868c0 0.14245-0.11424 0.33157-0.25669 0.42494-0.14245 0.09336-0.2567 0.05401-0.2567-0.08844v-1.2868l-0.51506 0.3376v1.2868c0 0.14245-0.11424 0.33157-0.25669 0.42494-0.14245 0.09336-0.25669 0.05401-0.25669-0.08844v-1.2868l-0.51507 0.33761v1.2868c0 0.14245-0.11424 0.33157-0.25669 0.42494-0.14245 0.09337-0.25669 0.05401-0.25669-0.08844v-1.2868l-0.51507 0.3376v1.2868c0 0.14245-0.11424 0.33157-0.25669 0.42494s-0.25669 0.05401-0.25669-0.08844v-1.2868l-0.51507 0.33761v1.2868c0 0.14245-0.11424 0.33157-0.25669 0.42494-0.14245 0.09337-0.25669 0.05401-0.25669-0.08844v-1.2868l-0.51507 0.3376v1.2868c0 0.14245-0.11424 0.33157-0.25669 0.42494-0.14245 0.09336-0.25669 0.05401-0.25669-0.08844v-1.2868l-0.51507 0.3376v1.2868c0 0.14245-0.11424 0.33157-0.25669 0.42494zm6.6841-12.558a0.40209 0.7658 35.927 0 0 0.55365-0.91822 0.40209 0.7658 35.927 0 0-0.55365-0.19244 0.40209 0.7658 35.927 0 0-0.55532 0.91932 0.40209 0.7658 35.927 0 0 0.55532 0.19134z" fill="#1afe49" stroke-width=".80136"/></g></svg>
