<?xml version="1.0" encoding="UTF-8"?>
<!-- Created with Inkscape (http://www.inkscape.org/) -->
<svg id="svg2" width="97.904" height="70.471" version="1.1" viewBox="0 0 97.904 70.471" xml:space="preserve" xmlns="http://www.w3.org/2000/svg"><g id="g10" transform="matrix(1.3333 0 0 -1.3333 -194.83 139.71)"><path id="path106991-2-9-2" d="m171.7 68.346-23.16-14.622" fill="none" stroke="#120458" stroke-width=".89009"/><path id="path97820" d="m164.95 73.443 19.841-12.313 19.84 12.313-19.84 12.313zm19.841-13.486-21.729 13.486 21.729 13.485 21.728-13.485-21.728-13.486" fill="#120458" stroke="#120458" stroke-width=".096678"/><path id="path106991-2-9" d="m216.57 94.528-22.801-15.316" fill="none" stroke="#120458" stroke-width=".89009"/><path id="path97822" d="m199.09 77.878-14.295-8.8706v17.742l14.295 8.8706v-17.742" fill="#120458"/><path id="path97824" d="m184.79 86.75-14.295 8.8706 14.295 8.8716 14.295-8.8716-14.295-8.8706" fill="#d9effb"/><path id="path97826" d="m184.79 69.008-14.295 8.8706v17.742l14.295-8.8706v-17.742" fill="#829dc7"/><path id="path73564-6-0-2-2" d="m218.11 92.943c-1.2262-0.76077-3.2143-0.76077-4.4405 0-1.2272 0.76077-1.2272 1.9956 0 2.7556 1.2262 0.76157 3.2143 0.76157 4.4405 0 1.2272-0.75997 1.2272-1.9948 0-2.7556" fill="#120458"/><path id="path73564-6-0-2-2-8" d="m174.13 67.028c-1.2262-0.76077-3.2143-0.76077-4.4405 0-1.2272 0.76077-1.2272 1.9956 0 2.7556 1.2262 0.76157 3.2143 0.76157 4.4405 0 1.2272-0.75996 1.2272-1.9948 0-2.7556" fill="#120458"/><path id="path73564-6-0-2-2-3" d="m151.82 52.842c-1.2262-0.76076-3.2143-0.76076-4.4405 0-1.2272 0.76077-1.2272 1.9956 0 2.7556 1.2262 0.76157 3.2143 0.76157 4.4405 0 1.2272-0.75996 1.2272-1.9948 0-2.7556" fill="#120458" stroke="#120458" stroke-width=".096678"/><path id="path139" d="m182.98 98.765c1.9699 0 3.4083-1.4539 3.4083-3.3547" color="#000000" fill="none" stroke-linecap="round" stroke-width="1.1107"/><path id="path141" d="m188.29 95.134c0-1.9699-1.4539-3.4083-3.3547-3.4083" color="#000000" fill="none" stroke-linecap="round" stroke-width="1.1107"/><path id="path143" d="m184.66 89.821c-1.9699 0-3.4083 1.4539-3.4083 3.3547" color="#000000" fill="none" stroke-linecap="round" stroke-width="1.1107"/><path id="path135" d="m176.61 89.255a0.64725 0.85781 40.979 0 1-0.74486-0.53437 0.64725 0.85781 40.979 0 1 0.74486-0.95536c2.2763-0.64326 3.8285-2.6632 3.8285-4.8376a0.64725 0.85781 40.979 0 1 0.74487-0.95536 0.64725 0.85781 40.979 0 1 0.74487 0.53437c0 2.9262-2.3086 5.8978-5.3183 6.7483zm-0.36949-2.4525c-2.9261 0.8269-5.2455-0.8243-5.2455-3.834a0.64725 0.85781 40.979 0 1 0.74487-0.95733 0.64725 0.85781 40.979 0 1 0.74486 0.53634c0 2.2763 1.5813 3.3797 3.7557 2.7652a0.64725 0.85781 40.979 0 1 0.74487 0.53437 0.64725 0.85781 40.979 0 1-0.74487 0.95536zm7.4998-4.4325a0.64725 0.85781 40.979 0 1-0.74486-0.53437c0-2.2763-1.5814-3.3817-3.7557-2.7672a0.64725 0.85781 40.979 0 1-0.74684-0.53382 0.64725 0.85781 40.979 0 1 0.74684-0.95591c2.9262-0.8269 5.2455 0.82627 5.2455 3.8359a0.64725 0.85781 40.979 0 1-0.74486 0.95536zm-9.4434 0.04095a0.64725 0.85781 40.979 0 1-0.74486-0.53437c0-2.9262 2.3066-5.8993 5.3163-6.7498a0.64725 0.85781 40.979 0 1 0.74486 0.53437 0.64725 0.85781 40.979 0 1-0.74486 0.95731c-2.2763 0.64326-3.8266 2.6627-3.8266 4.8371a0.64725 0.85781 40.979 0 1-0.74486 0.95536z" color="#000000" fill="#1afe49" fill-opacity=".98824" stroke-linecap="round" stroke-width="1.6211"/></g></svg>
