<?xml version="1.0" encoding="UTF-8"?>
<!-- Created with Inkscape (http://www.inkscape.org/) -->
<svg id="svg2" width="97.904" height="70.471" version="1.1" viewBox="0 0 97.904 70.471" xml:space="preserve" xmlns="http://www.w3.org/2000/svg"><g id="g10" transform="matrix(1.3333 0 0 -1.3333 -194.83 139.71)"><path id="path106991-2-9-2" d="m171.7 68.346-23.16-14.622" fill="none" stroke="#120458" stroke-width=".89009"/><path id="path97820" d="m164.95 73.443 19.841-12.313 19.84 12.313-19.84 12.313zm19.841-13.486-21.729 13.486 21.729 13.485 21.728-13.485-21.728-13.486" fill="#120458" stroke="#120458" stroke-width=".096678"/><path id="path106991-2-9" d="m216.57 94.528-22.801-15.316" fill="none" stroke="#120458" stroke-width=".89009"/><path id="path97822" d="m199.09 77.878-14.295-8.8706v17.742l14.295 8.8706v-17.742" fill="#120458"/><path id="path97824" d="m184.79 86.75-14.295 8.8706 14.295 8.8716 14.295-8.8716-14.295-8.8706" fill="#d9effb"/><path id="path97826" d="m184.79 69.008-14.295 8.8706v17.742l14.295-8.8706v-17.742" fill="#829dc7"/><path id="path73564-6-0-2-2" d="m218.11 92.943c-1.2262-0.76077-3.2143-0.76077-4.4405 0-1.2272 0.76077-1.2272 1.9956 0 2.7556 1.2262 0.76157 3.2143 0.76157 4.4405 0 1.2272-0.75997 1.2272-1.9948 0-2.7556" fill="#120458"/><path id="path73564-6-0-2-2-8" d="m174.13 67.028c-1.2262-0.76077-3.2143-0.76077-4.4405 0-1.2272 0.76077-1.2272 1.9956 0 2.7556 1.2262 0.76157 3.2143 0.76157 4.4405 0 1.2272-0.75996 1.2272-1.9948 0-2.7556" fill="#120458"/><path id="path73564-6-0-2-2-3" d="m151.82 52.842c-1.2262-0.76076-3.2143-0.76076-4.4405 0-1.2272 0.76077-1.2272 1.9956 0 2.7556 1.2262 0.76157 3.2143 0.76157 4.4405 0 1.2272-0.75996 1.2272-1.9948 0-2.7556" fill="#120458" stroke="#120458" stroke-width=".096678"/><path id="path4" d="m173.35 85.182c0-0.71624-0.58067-0.94334-1.2974-0.50674-0.71589 0.43608-1.2966 1.3705-1.2966 2.0868 0 0.71596 0.58067 0.94292 1.2966 0.50684 0.71674-0.4366 1.2974-1.371 1.2974-2.0869zm7.3784-10.8c0.3582-0.838 1.151-1.5335 1.7713-1.5537 0.62023-0.01962 0.83274 0.64418 0.47462 1.4826-0.35812 0.83839-1.151 1.5335-1.7712 1.5531-0.62031 0.01966-0.83282-0.64371-0.4747-1.4821zm2.2459 9.9465c0.35813 0.40223 0.14604 1.3245-0.47462 2.0603-0.61988 0.73572-1.4131 1.0064-1.7713 0.60451-0.35812-0.40209-0.14561-1.3245 0.4747-2.0605 0.6203-0.73597 1.4136-1.0067 1.7712-0.60432zm-4.3891 1.3632c1.9324-1.1771 3.5182-3.6244 3.6838-5.6148l1.8769-1.1137c-0.0891 1.4582-0.6981 3.0919-1.6365 4.5945-0.49677 0.11094-1.0732 0.4881-1.5704 1.0783-0.49761 0.59042-0.80841 1.2661-0.89061 1.8431-0.46644 0.41081-0.95708 0.7775-1.4631 1.0857-0.88755 0.54065-1.7265 0.84415-2.4715 0.92881l0.91324-2.1962c0.47327-0.06838 1.0018-0.26688 1.5582-0.6058zm-3.6986-1.4452c0 1.2509 0.62158 1.9786 1.5726 2.0682l-0.96363 2.1978c-1.1162-0.06549-1.9477-0.69607-2.2985-1.8155 0.41512-0.58715 0.68109-1.2616 0.68109-1.8363 0-0.57504-0.26603-0.92541-0.68109-1.0069 0.35078-1.5467 1.1822-3.1903 2.2985-4.6161l0.96363 1.0238c-0.95104 1.2487-1.5726 2.7332-1.5726 3.985zm3.6986-5.9518c-0.55633 0.33889-1.0849 0.78427-1.5582 1.2929l-0.91324-1.0836c0.745-0.82325 1.5839-1.5416 2.4715-2.0822 0.50593-0.30819 0.99665-0.53978 1.4631-0.69701 0.0821 0.47728 0.39292 0.77431 0.89061 0.75796 0.49725-0.01559 1.0736-0.34058 1.5704-0.83484 0.93849 0.35978 1.5474 1.2515 1.6365 2.6012l-1.8769 1.1724c-0.16569-1.7881-1.7513-2.3039-3.6838-1.1268z" fill="#1afe49" stroke-width=".071169"/></g></svg>
