<?xml version="1.0" encoding="UTF-8"?>
<!-- Created with Inkscape (http://www.inkscape.org/) -->
<svg id="svg2" width="97.904" height="70.471" version="1.1" viewBox="0 0 97.904 70.471" xml:space="preserve" xmlns="http://www.w3.org/2000/svg"><g id="g10" transform="matrix(1.3333 0 0 -1.3333 -194.83 139.71)"><path id="path106991-2-9-2" d="m171.7 68.346-23.16-14.622" fill="none" stroke="#120458" stroke-width=".89009"/><path id="path97820" d="m164.95 73.443 19.841-12.313 19.84 12.313-19.84 12.313zm19.841-13.486-21.729 13.486 21.729 13.485 21.728-13.485-21.728-13.486" fill="#120458" stroke="#120458" stroke-width=".096678"/><path id="path106991-2-9" d="m216.57 94.528-22.801-15.316" fill="none" stroke="#120458" stroke-width=".89009"/><path id="path97822" d="m199.09 77.878-14.295-8.8706v17.742l14.295 8.8706v-17.742" fill="#120458"/><path id="path97824" d="m184.79 86.75-14.295 8.8706 14.295 8.8716 14.295-8.8716-14.295-8.8706" fill="#d9effb"/><path id="path97826" d="m184.79 69.008-14.295 8.8706v17.742l14.295-8.8706v-17.742" fill="#829dc7"/><path id="path73564-6-0-2-2" d="m218.11 92.943c-1.2262-0.76077-3.2143-0.76077-4.4405 0-1.2272 0.76077-1.2272 1.9956 0 2.7556 1.2262 0.76157 3.2143 0.76157 4.4405 0 1.2272-0.75997 1.2272-1.9948 0-2.7556" fill="#120458"/><path id="path73564-6-0-2-2-8" d="m174.13 67.028c-1.2262-0.76077-3.2143-0.76077-4.4405 0-1.2272 0.76077-1.2272 1.9956 0 2.7556 1.2262 0.76157 3.2143 0.76157 4.4405 0 1.2272-0.75996 1.2272-1.9948 0-2.7556" fill="#120458"/><path id="path73564-6-0-2-2-3" d="m151.82 52.842c-1.2262-0.76076-3.2143-0.76076-4.4405 0-1.2272 0.76077-1.2272 1.9956 0 2.7556 1.2262 0.76157 3.2143 0.76157 4.4405 0 1.2272-0.75996 1.2272-1.9948 0-2.7556" fill="#120458" stroke="#120458" stroke-width=".096678"/><ellipse id="path903" transform="matrix(.88937 -.45719 -.075969 -.99711 0 0)" cx="185.68" cy="-167.61" rx="6.254" ry="5.7632" fill="#1afe49" stroke="#1afe49" stroke-width="1.6535"/><g id="g979" transform="matrix(1.6819 0 0 1.6819 -120.15 -54.853)" fill="#fff" stroke="#fff"><ellipse id="path903-3" transform="matrix(.88937 -.45719 -.075969 -.99711 0 0)" cx="182.31" cy="-166.3" rx=".6868" ry=".63291" stroke-width=".18159"/><ellipse id="path903-3-6" transform="matrix(.88937 -.45719 -.075969 -.99711 0 0)" cx="186.75" cy="-169" rx=".6868" ry=".63291" stroke-width=".18159"/><ellipse id="path903-3-7" transform="matrix(.88937 -.45719 -.075969 -.99711 0 0)" cx="185.3" cy="-163.86" rx=".6868" ry=".63291" stroke-width=".18159"/><path id="path941" d="m174.68 82.456c4.2638 0.54794 4.2638 0.54794 4.2638 0.54794" stroke-width=".375"/><path id="path941-5" d="m178.74 82.579c-1.6453-3.9716-1.6453-3.9716-1.6453-3.9716" stroke-width=".375"/><path id="path941-5-3" d="m177.27 78.728-2.3944 3.5703" stroke-width=".375"/></g></g></svg>
