<?xml version="1.0" encoding="UTF-8"?>
<!-- Created with Inkscape (http://www.inkscape.org/) -->
<svg id="svg2" width="97.904" height="70.471" version="1.1" viewBox="0 0 97.904 70.471" xml:space="preserve" xmlns="http://www.w3.org/2000/svg"><g id="g10" transform="matrix(1.3333 0 0 -1.3333 -194.83 139.71)"><path id="path106991-2-9-2" d="m171.7 68.346-23.16-14.622" fill="none" stroke="#120458" stroke-width=".89009"/><path id="path97820" d="m164.95 73.443 19.841-12.313 19.84 12.313-19.84 12.313zm19.841-13.486-21.729 13.486 21.729 13.485 21.728-13.485-21.728-13.486" fill="#120458" stroke="#120458" stroke-width=".096678"/><path id="path106991-2-9" d="m216.57 94.528-22.801-15.316" fill="none" stroke="#120458" stroke-width=".89009"/><path id="path97822" d="m199.09 77.878-14.295-8.8706v17.742l14.295 8.8706v-17.742" fill="#120458"/><path id="path97824" d="m184.79 86.75-14.295 8.8706 14.295 8.8716 14.295-8.8716-14.295-8.8706" fill="#d9effb"/><path id="path97826" d="m184.79 69.008-14.295 8.8706v17.742l14.295-8.8706v-17.742" fill="#829dc7"/><path id="path73564-6-0-2-2" d="m218.11 92.943c-1.2262-0.76077-3.2143-0.76077-4.4405 0-1.2272 0.76077-1.2272 1.9956 0 2.7556 1.2262 0.76157 3.2143 0.76157 4.4405 0 1.2272-0.75997 1.2272-1.9948 0-2.7556" fill="#120458"/><path id="path73564-6-0-2-2-8" d="m174.13 67.028c-1.2262-0.76077-3.2143-0.76077-4.4405 0-1.2272 0.76077-1.2272 1.9956 0 2.7556 1.2262 0.76157 3.2143 0.76157 4.4405 0 1.2272-0.75996 1.2272-1.9948 0-2.7556" fill="#120458"/><path id="path73564-6-0-2-2-3" d="m151.82 52.842c-1.2262-0.76076-3.2143-0.76076-4.4405 0-1.2272 0.76077-1.2272 1.9956 0 2.7556 1.2262 0.76157 3.2143 0.76157 4.4405 0 1.2272-0.75996 1.2272-1.9948 0-2.7556" fill="#120458" stroke="#120458" stroke-width=".096678"/><g id="g129" transform="matrix(.91151 -.56606 0 -.91151 165.42 101.46)" fill="#1afe49"><path id="path125" d="m17.888 13.63h-8.8261v-5.8841h8.8261m0-0.98068h-8.8261c-0.54428 0-0.98068 0.4364-0.98068 0.98068v5.8841a0.98068 0.98068 0 0 0 0.98068 0.98068h3.4324v0.98068h-0.98068v0.98068h3.9227v-0.98068h-0.98068v-0.98068h3.4324a0.98068 0.98068 0 0 0 0.98068-0.98068v-5.8841c0-0.54428-0.44131-0.98068-0.98068-0.98068z"/><path id="path127" d="m13.891 17.617v0.83229h0.41614c0.22983 0 0.41615 0.18632 0.41615 0.41615h2.913v0.83229h-2.913c0 0.22983-0.18632 0.41615-0.41615 0.41615h-1.6646c-0.22983 0-0.41615-0.18632-0.41615-0.41615h-2.913v-0.83229h2.913c0-0.22983 0.18632-0.41615 0.41615-0.41615h0.41614v-0.83229h0.83229"/></g></g></svg>
