<?xml version="1.0" encoding="UTF-8" standalone="no"?>
<svg
   xmlns:dc="http://purl.org/dc/elements/1.1/"
   xmlns:cc="http://creativecommons.org/ns#"
   xmlns:rdf="http://www.w3.org/1999/02/22-rdf-syntax-ns#"
   xmlns:svg="http://www.w3.org/2000/svg"
   xmlns="http://www.w3.org/2000/svg"
   xmlns:sodipodi="http://sodipodi.sourceforge.net/DTD/sodipodi-0.dtd"
   xmlns:inkscape="http://www.inkscape.org/namespaces/inkscape"
   version="1.1"
   viewBox="0 0 26.95 26.95"
   id="svg137"
   sodipodi:docname="signal.svg"
   inkscape:version="0.92.5 (2060ec1f9f, 2020-04-08)">
  <metadata
     id="metadata141">
    <rdf:RDF>
      <cc:Work
         rdf:about="">
        <dc:format>image/svg+xml</dc:format>
        <dc:type
           rdf:resource="http://purl.org/dc/dcmitype/StillImage" />
      </cc:Work>
    </rdf:RDF>
  </metadata>
  <sodipodi:namedview
     pagecolor="#ffffff"
     bordercolor="#666666"
     borderopacity="1"
     objecttolerance="10"
     gridtolerance="10"
     guidetolerance="10"
     inkscape:pageopacity="0"
     inkscape:pageshadow="2"
     inkscape:window-width="1920"
     inkscape:window-height="1092"
     id="namedview139"
     showgrid="false"
     inkscape:zoom="8.7569571"
     inkscape:cx="-12.094418"
     inkscape:cy="1.2765932"
     inkscape:window-x="0"
     inkscape:window-y="27"
     inkscape:window-maximized="1"
     inkscape:current-layer="svg137" />
  <defs
     id="defs5">
    <filter
       id="filter6206-7"
       color-interpolation-filters="sRGB">
      <feGaussianBlur
         stdDeviation="0.658125"
         id="feGaussianBlur2" />
    </filter>
  </defs>
  <path
     style="opacity:0.2;fill:#1a237e;filter:url(#filter6206-7)"
     inkscape:connector-curvature="0"
     id="path7"
     d="m 4.4177,1028.2 v 1.6051 H 2.8125 v 18.192 h 1.6052 v 2.1402 h 18.192 v -2.1402 h 2.1402 v -18.192 H 22.6097 V 1028.2 Z"
     transform="matrix(1.0107,0,0,0.99762,-0.087875,-1022.821)" />
  <rect
     style="fill:#0016ee;fill-opacity:1"
     id="rect9"
     ry="1.1226"
     rx="1.1224999"
     height="21.327"
     width="21.327"
     y="2.7999511"
     x="2.8113" />
  <g
     id="g25"
     transform="translate(-20.925,-34.94)">
    <path
       style="fill:none"
       inkscape:connector-curvature="0"
       id="path11"
       d="M 0,0 H 48 V 48 H 0 Z" />
    <g
       id="g15"
       transform="matrix(0.33601,0,0,0.33601,1.434,68.477)">
      <path
         style="fill:none"
         inkscape:connector-curvature="0"
         id="path13"
         d="M 0,0 H 48 V 48 H 0 Z" />
    </g>
    <g
       id="g23"
       transform="matrix(0.37187,0,0,0.37187,36.377,59.287)">
      <path
         style="fill:none"
         inkscape:connector-curvature="0"
         id="path17"
         d="M 0,0 H 48 V 48 H 0 Z" />
      <g
         id="g21"
         transform="matrix(2.6891,0,0,2.6891,-77.724,-45.422)">
        <path
           style="fill:none"
           inkscape:connector-curvature="0"
           id="path19"
           d="M 0,0 H 48 V 48 H 0 Z" />
      </g>
    </g>
  </g>
  <path
     style="opacity:0.2;fill:#ffffff"
     inkscape:connector-curvature="0"
     id="path27"
     d="m 3.9336,2.8105 c -0.62186,0 -1.123,0.50115 -1.123,1.123 V 4.246 c 0,-0.6219 0.50118,-1.123 1.123,-1.123 h 19.082 c 0.62186,0 1.123,0.50115 1.123,1.123 V 3.9335 c 0,-0.6219 -0.50118,-1.123 -1.123,-1.123 z" />
  <rect
     style="fill:none"
     id="rect29"
     height="40"
     width="40"
     y="-513.04004"
     x="120" />
  <rect
     style="fill:none"
     id="rect31"
     height="40"
     width="40"
     y="-433.04001"
     x="120" />
  <rect
     style="fill:none"
     id="rect33"
     height="40"
     width="40"
     y="-393.04001"
     x="120" />
  <rect
     style="fill:none"
     id="rect35"
     height="40"
     width="40"
     y="-473.04001"
     x="120" />
  <rect
     style="fill:none"
     id="rect37"
     height="40"
     width="40"
     y="-353.04001"
     x="120" />
  <rect
     style="fill:none"
     id="rect39"
     height="40"
     width="40"
     y="-513.04004"
     x="200" />
  <rect
     style="fill:none"
     id="rect41"
     height="40"
     width="40"
     y="-433.04001"
     x="200" />
  <rect
     style="fill:none"
     id="rect43"
     height="40"
     width="40"
     y="-393.04001"
     x="200" />
  <rect
     style="fill:none"
     id="rect45"
     height="40"
     width="40"
     y="-473.04001"
     x="200" />
  <rect
     style="fill:none"
     id="rect47"
     height="40"
     width="40"
     y="-353.04001"
     x="200" />
  <rect
     style="fill:none"
     id="rect49"
     height="40"
     width="40"
     y="-513.04004"
     x="280" />
  <rect
     style="fill:none"
     id="rect51"
     height="40"
     width="40"
     y="-433.04001"
     x="280" />
  <rect
     style="fill:none"
     id="rect53"
     height="40"
     width="40"
     y="-393.04001"
     x="280" />
  <rect
     style="fill:none"
     id="rect55"
     height="40"
     width="40"
     y="-473.04001"
     x="280" />
  <rect
     style="fill:none"
     id="rect57"
     height="40"
     width="40"
     y="-353.04001"
     x="280" />
  <rect
     style="fill:none"
     id="rect59"
     height="40"
     width="40"
     y="-513.04004"
     x="160" />
  <rect
     style="fill:none"
     id="rect61"
     height="40"
     width="40"
     y="-433.04001"
     x="160" />
  <rect
     style="fill:none"
     id="rect63"
     height="40"
     width="40"
     y="-393.04001"
     x="160" />
  <rect
     style="fill:none"
     id="rect65"
     height="40"
     width="40"
     y="-473.04001"
     x="160" />
  <rect
     style="fill:none"
     id="rect67"
     height="40"
     width="40"
     y="-353.04001"
     x="160" />
  <rect
     style="fill:none"
     id="rect69"
     height="40"
     width="40"
     y="-513.04004"
     x="240" />
  <rect
     style="fill:none"
     id="rect71"
     height="40"
     width="40"
     y="-433.04001"
     x="240" />
  <rect
     style="fill:none"
     id="rect73"
     height="40"
     width="40"
     y="-393.04001"
     x="240" />
  <rect
     style="fill:none"
     id="rect75"
     height="40"
     width="40"
     y="-473.04001"
     x="240" />
  <rect
     style="fill:none"
     id="rect77"
     height="40"
     width="40"
     y="-353.04001"
     x="240" />
  <rect
     style="fill:none"
     id="rect79"
     height="40"
     width="40"
     y="-313.04001"
     x="120" />
  <rect
     style="fill:none"
     id="rect81"
     height="40"
     width="40"
     y="-313.04001"
     x="200" />
  <rect
     style="fill:none"
     id="rect83"
     height="40"
     width="40"
     y="-313.04001"
     x="280" />
  <rect
     style="fill:none"
     id="rect85"
     height="40"
     width="40"
     y="-313.04001"
     x="160" />
  <rect
     style="fill:none"
     id="rect87"
     height="40"
     width="40"
     y="-313.04001"
     x="240" />
  <rect
     style="fill:none"
     id="rect89"
     height="40"
     width="40"
     y="-473.04001"
     x="320" />
  <rect
     style="fill:none"
     id="rect91"
     height="40"
     width="40"
     y="-433.04001"
     x="320" />
  <rect
     style="fill:none"
     id="rect93"
     height="40"
     width="40"
     y="-353.04001"
     x="320" />
  <rect
     style="fill:none"
     id="rect95"
     height="40"
     width="40"
     y="-513.04004"
     x="320" />
  <rect
     style="fill:none"
     id="rect97"
     height="40"
     width="40"
     y="-393.04001"
     x="320" />
  <rect
     style="fill:none"
     id="rect99"
     height="40"
     width="40"
     y="-313.04001"
     x="320" />
  <rect
     style="fill:none"
     id="rect101"
     height="180"
     width="180"
     y="-483.04001"
     x="150" />
  <g
     id="g105"
     transform="matrix(0.37344,0,0,0.37344,4.4375,3.4)">
    <path
       style="fill:none"
       inkscape:connector-curvature="0"
       id="path103"
       d="M 0,0 H 48 V 48 H 0 Z" />
  </g>
  <g
     id="g109"
     transform="matrix(0.36471,0,0,0.36471,4.8146,3.4)">
    <path
       style="fill:none"
       inkscape:connector-curvature="0"
       id="path107"
       d="M 0,0 H 48 V 48 H 0 Z" />
  </g>
  <g
     id="g119"
     transform="matrix(0.41585,0,0,0.41585,79.055,-35.52)">
    <g
       id="g117"
       transform="matrix(0.062269,0,0,0.062269,-26.473,173.71)">
      <g
         id="g115"
         transform="matrix(38.618,0,0,38.618,13804,-12696)">
        <g
           id="g113"
           transform="matrix(0.71436,0,0,0.71436,-375.49,176.57)">
          <path
             style="opacity:0"
             inkscape:connector-curvature="0"
             id="path111"
             d="m 490.56,95.75 c -121.72,0.18504 -342.34,0.09058 -468.16,0.09375 -1.5548,6.9739 -2.4062,14.232 -2.4062,21.688 v 76.344 c 139.06,0.49354 331.32,0.2554 472.97,0.25 v -76.594 c 0,-7.4875 -0.8386,-14.78 -2.4062,-21.781 z M 183.37,293.69 c -52.495,-0.003 -106.38,0.11982 -163.38,0.375 v 92.844 c 191.76,-0.26331 282.43,-0.0926 472.97,-0.21875 v -92.25 c -109.29,-0.35498 -208.43,-0.74426 -309.59,-0.75 z"
             transform="matrix(1.3999,0,0,1.3999,525.63,-247.17)" />
        </g>
      </g>
    </g>
  </g>
  <path
     style="opacity:0.2;fill:#1a237e"
     inkscape:connector-curvature="0"
     id="path121"
     d="m 23.015,24.2 c 0.6218,0 1.123,-0.5012 1.123,-1.123 v -0.3125 c 0,0.6218 -0.5012,1.123 -1.123,1.123 H 3.933 c -0.6218,0 -1.123,-0.5012 -1.123,-1.123 v 0.3125 c 0,0.6218 0.5012,1.123 1.123,1.123 z" />
  <g
     id="g127-3"
     transform="translate(-1.5062856e-4,-1025.5005)">
    <path
       id="path125-6"
       d="m 11.877,1032.5 0.1498,0.6054 a 6.0172,6.0172 0 0 0 -1.6728,0.6918 l -0.32042,-0.5347 a 6.633,6.633 0 0 1 1.8434,-0.7625 z m 3.1958,0 -0.1498,0.6054 a 6.0172,6.0172 0 0 1 1.6728,0.6918 l 0.3225,-0.5347 A 6.633,6.633 0 0 0 15.0728,1032.5 Z m -7.2988,3.0221 a 6.633,6.633 0 0 0 -0.76255,1.8434 l 0.60546,0.1498 a 6.0172,6.0172 0 0 1 0.69181,-1.6728 z m -0.3329,3.4413 a 6.0234,6.0234 0 0 1 0.067621,-0.9041 l -0.61691,-0.094 a 6.6819,6.6819 0 0 0 0,1.9954 l 0.61691,-0.094 A 6.0234,6.0234 0 0 1 7.4411,1038.9626 Z m 9.4752,5.701 -0.32042,-0.5347 a 6.0172,6.0172 0 0 1 -1.6707,0.6917 l 0.14981,0.6054 a 6.633,6.633 0 0 0 1.8414,-0.7624 z m 2.5925,-5.701 a 6.0234,6.0234 0 0 1 -0.06762,0.9041 l 0.61691,0.094 a 6.6819,6.6819 0 0 0 0,-1.9954 l -0.61691,0.094 a 6.0234,6.0234 0 0 1 0.06762,0.9041 z m 0.42965,1.598 -0.60546,-0.1499 a 6.0172,6.0172 0 0 1 -0.69181,1.6729 l 0.53472,0.3225 a 6.633,6.633 0 0 0 0.76255,-1.8455 z m -5.5594,4.3693 a 6.0765,6.0765 0 0 1 -1.8081,0 l -0.09363,0.6168 a 6.6819,6.6819 0 0 0 1.9953,0 z m 3.9532,-2.3875 a 6.0557,6.0557 0 0 1 -1.2785,1.2774 l 0.37035,0.5026 a 6.6684,6.6684 0 0 0 1.4107,-1.4066 z m -1.2785,-8.437 a 6.0557,6.0557 0 0 1 1.2785,1.2785 l 0.50247,-0.3745 a 6.6684,6.6684 0 0 0 -1.4065,-1.4066 z m -8.4359,1.2785 a 6.0557,6.0557 0 0 1 1.2785,-1.2785 l -0.37451,-0.5026 a 6.6684,6.6684 0 0 0 -1.4065,1.4066 z m 10.558,0.1374 -0.53472,0.3204 a 6.0172,6.0172 0 0 1 0.69181,1.6707 l 0.60546,-0.1497 a 6.633,6.633 0 0 0 -0.76255,-1.8414 z m -6.605,-2.5249 a 6.0765,6.0765 0 0 1 1.8081,0 l 0.09363,-0.6168 a 6.6819,6.6819 0 0 0 -1.9953,0 z m -3.6328,11.491 -1.2889,0.3005 0.30065,-1.2888 -0.60754,-0.1426 -0.30065,1.289 a 0.62419,0.62419 0 0 0 0.75007,0.75 l 1.2879,-0.2954 z m -1.4658,-1.6874 0.60754,0.1415 0.20806,-0.8937 a 6.0078,6.0078 0 0 1 -0.671,-1.6375 l -0.60546,0.1499 a 6.6081,6.6081 0 0 0 0.61379,1.5822 z m 2.9129,1.3524 -0.89363,0.208 0.14148,0.6075 0.65748,-0.1529 a 6.6081,6.6081 0 0 0 1.5823,0.6138 l 0.1498,-0.6055 a 6.0078,6.0078 0 0 1 -1.6333,-0.6751 z m 3.0897,-10.6 a 5.4096,5.4096 0 0 0 -4.5774,8.2881 l -0.52016,2.219 2.219,-0.5201 a 5.4096,5.4096 0 1 0 2.8785,-9.987 z"
       inkscape:connector-curvature="0"
       style="fill:#ffffff" />
  </g>
  <g
     display="none"
     fill="none"
     id="g135">
    <rect
       transform="rotate(90)"
       x="7.3342"
       y="-19.616"
       width="12.282"
       height="12.282"
       display="inline"
       stroke="#000"
       stroke-width=".065984"
       id="rect129" />
    <rect
       x="6.7726"
       y="8.112"
       width="13.405"
       height="10.726"
       stroke="#5261ff"
       stroke-linecap="round"
       stroke-linejoin="round"
       stroke-width=".06524"
       id="rect131" />
    <rect
       transform="rotate(90)"
       x="6.7726"
       y="-18.838"
       width="13.405"
       height="10.726"
       display="inline"
       stroke="#0f0"
       stroke-linecap="round"
       stroke-linejoin="round"
       stroke-width=".06524"
       id="rect133" />
  </g>
</svg>
