<?xml version="1.0" encoding="UTF-8" standalone="no"?>
<svg
   xmlns:dc="http://purl.org/dc/elements/1.1/"
   xmlns:cc="http://creativecommons.org/ns#"
   xmlns:rdf="http://www.w3.org/1999/02/22-rdf-syntax-ns#"
   xmlns:svg="http://www.w3.org/2000/svg"
   xmlns="http://www.w3.org/2000/svg"
   xmlns:sodipodi="http://sodipodi.sourceforge.net/DTD/sodipodi-0.dtd"
   xmlns:inkscape="http://www.inkscape.org/namespaces/inkscape"
   version="1.1"
   viewBox="0 0 26.95 26.95"
   id="svg300"
   sodipodi:docname="termsofservice.svg"
   inkscape:version="0.92.5 (2060ec1f9f, 2020-04-08)">
  <metadata
     id="metadata304">
    <rdf:RDF>
      <cc:Work
         rdf:about="">
        <dc:format>image/svg+xml</dc:format>
        <dc:type
           rdf:resource="http://purl.org/dc/dcmitype/StillImage" />
      </cc:Work>
    </rdf:RDF>
  </metadata>
  <sodipodi:namedview
     pagecolor="#ffffff"
     bordercolor="#666666"
     borderopacity="1"
     objecttolerance="10"
     gridtolerance="10"
     guidetolerance="10"
     inkscape:pageopacity="0"
     inkscape:pageshadow="2"
     inkscape:window-width="746"
     inkscape:window-height="480"
     id="namedview302"
     showgrid="false"
     inkscape:zoom="8.7569571"
     inkscape:cx="-7.1371826"
     inkscape:cy="12.904026"
     inkscape:window-x="0"
     inkscape:window-y="27"
     inkscape:window-maximized="0"
     inkscape:current-layer="g126" />
  <defs
     id="defs8">
    <filter
       id="filter6206-7"
       color-interpolation-filters="sRGB">
      <feGaussianBlur
         stdDeviation="0.658125"
         id="feGaussianBlur2" />
    </filter>
    <filter
       id="filter6206-7-8"
       color-interpolation-filters="sRGB">
      <feGaussianBlur
         stdDeviation="0.658125"
         id="feGaussianBlur5" />
    </filter>
  </defs>
  <g
     transform="translate(0 -1025.4)"
     id="g126">
    <path
       transform="matrix(1.0107 0 0 .99762 -.087875 2.579)"
       d="m4.4177 1028.2v1.6051h-1.6052v18.192h1.6052v2.1402h18.192v-2.1402h2.1402v-18.192h-2.1402v-1.6051h-18.192z"
       fill="#263238"
       filter="url(#filter6206-7)"
       opacity=".2"
       id="path10" />
    <rect
       x="2.8113"
       y="1028.2"
       width="21.327"
       height="21.327"
       rx="1.1225"
       ry="1.1226"
       fill="#4caf50"
       id="rect12"
       style="fill:#1afe49;fill-opacity:1" />
    <g
       transform="translate(-20.925 990.46)"
       id="g28">
      <path
         d="m0 0h48v48h-48z"
         fill="none"
         id="path14" />
      <g
         transform="matrix(.33601 0 0 .33601 1.434 68.477)"
         id="g18">
        <path
           d="m0 0h48v48h-48z"
           fill="none"
           id="path16" />
      </g>
      <g
         transform="matrix(.37187 0 0 .37187 36.377 59.287)"
         id="g26">
        <path
           d="m0 0h48v48h-48z"
           fill="none"
           id="path20" />
        <g
           transform="matrix(2.6891 0 0 2.6891 -77.724 -45.422)"
           id="g24">
          <path
             d="m0 0h48v48h-48z"
             fill="none"
             id="path22" />
        </g>
      </g>
    </g>
    <path
       transform="translate(0 1025.4)"
       d="m3.9336 2.8105c-0.62186 0-1.123 0.50115-1.123 1.123v0.3125c0-0.6219 0.50118-1.123 1.123-1.123h19.082c0.62186 0 1.123 0.50115 1.123 1.123v-0.3125c0-0.6219-0.50118-1.123-1.123-1.123h-19.082z"
       fill="#fff"
       opacity=".2"
       id="path30" />
    <rect
       x="120"
       y="512.36"
       width="40"
       height="40"
       fill="none"
       id="rect32" />
    <rect
       x="120"
       y="592.36"
       width="40"
       height="40"
       fill="none"
       id="rect34" />
    <rect
       x="120"
       y="632.36"
       width="40"
       height="40"
       fill="none"
       id="rect36" />
    <rect
       x="120"
       y="552.36"
       width="40"
       height="40"
       fill="none"
       id="rect38" />
    <rect
       x="120"
       y="672.36"
       width="40"
       height="40"
       fill="none"
       id="rect40" />
    <rect
       x="200"
       y="512.36"
       width="40"
       height="40"
       fill="none"
       id="rect42" />
    <rect
       x="200"
       y="592.36"
       width="40"
       height="40"
       fill="none"
       id="rect44" />
    <rect
       x="200"
       y="632.36"
       width="40"
       height="40"
       fill="none"
       id="rect46" />
    <rect
       x="200"
       y="552.36"
       width="40"
       height="40"
       fill="none"
       id="rect48" />
    <rect
       x="200"
       y="672.36"
       width="40"
       height="40"
       fill="none"
       id="rect50" />
    <rect
       x="280"
       y="512.36"
       width="40"
       height="40"
       fill="none"
       id="rect52" />
    <rect
       x="280"
       y="592.36"
       width="40"
       height="40"
       fill="none"
       id="rect54" />
    <rect
       x="280"
       y="632.36"
       width="40"
       height="40"
       fill="none"
       id="rect56" />
    <rect
       x="280"
       y="552.36"
       width="40"
       height="40"
       fill="none"
       id="rect58" />
    <rect
       x="280"
       y="672.36"
       width="40"
       height="40"
       fill="none"
       id="rect60" />
    <rect
       x="160"
       y="512.36"
       width="40"
       height="40"
       fill="none"
       id="rect62" />
    <rect
       x="160"
       y="592.36"
       width="40"
       height="40"
       fill="none"
       id="rect64" />
    <rect
       x="160"
       y="632.36"
       width="40"
       height="40"
       fill="none"
       id="rect66" />
    <rect
       x="160"
       y="552.36"
       width="40"
       height="40"
       fill="none"
       id="rect68" />
    <rect
       x="160"
       y="672.36"
       width="40"
       height="40"
       fill="none"
       id="rect70" />
    <rect
       x="240"
       y="512.36"
       width="40"
       height="40"
       fill="none"
       id="rect72" />
    <rect
       x="240"
       y="592.36"
       width="40"
       height="40"
       fill="none"
       id="rect74" />
    <rect
       x="240"
       y="632.36"
       width="40"
       height="40"
       fill="none"
       id="rect76" />
    <rect
       x="240"
       y="552.36"
       width="40"
       height="40"
       fill="none"
       id="rect78" />
    <rect
       x="240"
       y="672.36"
       width="40"
       height="40"
       fill="none"
       id="rect80" />
    <rect
       x="120"
       y="712.36"
       width="40"
       height="40"
       fill="none"
       id="rect82" />
    <rect
       x="200"
       y="712.36"
       width="40"
       height="40"
       fill="none"
       id="rect84" />
    <rect
       x="280"
       y="712.36"
       width="40"
       height="40"
       fill="none"
       id="rect86" />
    <rect
       x="160"
       y="712.36"
       width="40"
       height="40"
       fill="none"
       id="rect88" />
    <rect
       x="240"
       y="712.36"
       width="40"
       height="40"
       fill="none"
       id="rect90" />
    <rect
       x="320"
       y="552.36"
       width="40"
       height="40"
       fill="none"
       id="rect92" />
    <rect
       x="320"
       y="592.36"
       width="40"
       height="40"
       fill="none"
       id="rect94" />
    <rect
       x="320"
       y="672.36"
       width="40"
       height="40"
       fill="none"
       id="rect96" />
    <rect
       x="320"
       y="512.36"
       width="40"
       height="40"
       fill="none"
       id="rect98" />
    <rect
       x="320"
       y="632.36"
       width="40"
       height="40"
       fill="none"
       id="rect100" />
    <rect
       x="320"
       y="712.36"
       width="40"
       height="40"
       fill="none"
       id="rect102" />
    <rect
       x="150"
       y="542.36"
       width="180"
       height="180"
       fill="none"
       id="rect104" />
    <g
       transform="matrix(.37344 0 0 .37344 4.4375 1028.8)"
       id="g108">
      <path
         d="m0 0h48v48h-48z"
         fill="none"
         id="path106" />
    </g>
    <g
       transform="matrix(.36471 0 0 .36471 4.8146 1028.8)"
       id="g112">
      <path
         d="m0 0h48v48h-48z"
         fill="none"
         id="path110" />
    </g>
    <g
       transform="matrix(.41585 0 0 .41585 79.055 989.88)"
       id="g122">
      <g
         transform="matrix(.062269 0 0 .062269 -26.473 173.71)"
         id="g120">
        <g
           transform="matrix(38.618 0 0 38.618 13804 -12696)"
           id="g118">
          <g
             transform="matrix(.71436 0 0 .71436 -375.49 176.57)"
             id="g116">
            <path
               transform="matrix(1.3999 0 0 1.3999 525.63 -247.17)"
               d="m490.56 95.75c-121.72 0.18504-342.34 0.090577-468.16 0.09375-1.5548 6.9739-2.4062 14.232-2.4062 21.688v76.344c139.06 0.49354 331.32 0.2554 472.97 0.25v-76.594c0-7.4875-0.8386-14.78-2.4062-21.781zm-307.19 197.94c-52.495-3e-3 -106.38 0.11982-163.38 0.375v92.844c191.76-0.26331 282.43-0.0926 472.97-0.21875v-92.25c-109.29-0.35498-208.43-0.74426-309.59-0.75z"
               opacity="0"
               id="path114" />
          </g>
        </g>
      </g>
    </g>
    <path
       d="m23.015 1049.6c0.6218 0 1.123-0.5012 1.123-1.123v-0.3125c0 0.6218-0.5012 1.123-1.123 1.123h-19.082c-0.6218 0-1.123-0.5012-1.123-1.123v0.3125c0 0.6218 0.5012 1.123 1.123 1.123h19.082z"
       fill="#263238"
       opacity=".2"
       id="path124" />
  </g>
  <g
     transform="translate(-474.18 -282.69)"
     id="g290">
    <g
       transform="matrix(.072581 0 0 .072581 443.33 275.58)"
       id="g288">
      <g
         transform="matrix(13.778 0 0 13.778 -5683.4 3149.8)"
         id="g270">
        <g
           transform="translate(0 -1025.4)"
           id="g244">
          <path
             transform="matrix(1.0107 0 0 .99762 -.087875 2.579)"
             d="m4.4177 1028.2v1.6051h-1.6052v18.192h1.6052v2.1402h18.192v-2.1402h2.1402v-18.192h-2.1402v-1.6051h-18.192z"
             fill="#212121"
             filter="url(#filter6206-7-8)"
             opacity=".2"
             id="path128" />
          <rect
             x="2.8113"
             y="1028.2"
             width="21.327"
             height="21.327"
             rx="1.1225"
             ry="1.1226"
             fill="#9e9e9e"
             id="rect130" />
          <g
             transform="translate(-20.925 990.46)"
             id="g146">
            <path
               d="m0 0h48v48h-48z"
               fill="none"
               id="path132" />
            <g
               transform="matrix(.33601 0 0 .33601 1.434 68.477)"
               id="g136">
              <path
                 d="m0 0h48v48h-48z"
                 fill="none"
                 id="path134" />
            </g>
            <g
               transform="matrix(.37187 0 0 .37187 36.377 59.287)"
               id="g144">
              <path
                 d="m0 0h48v48h-48z"
                 fill="none"
                 id="path138" />
              <g
                 transform="matrix(2.6891 0 0 2.6891 -77.724 -45.422)"
                 id="g142">
                <path
                   d="m0 0h48v48h-48z"
                   fill="none"
                   id="path140" />
              </g>
            </g>
          </g>
          <path
             transform="translate(0 1025.4)"
             d="m3.9336 2.8105c-0.62186 0-1.123 0.50115-1.123 1.123v0.3125c0-0.6219 0.50118-1.123 1.123-1.123h19.082c0.62186 0 1.123 0.50115 1.123 1.123v-0.3125c0-0.6219-0.50118-1.123-1.123-1.123h-19.082z"
             fill="#fff"
             opacity=".2"
             id="path148" />
          <rect
             x="120"
             y="512.36"
             width="40"
             height="40"
             fill="none"
             id="rect150" />
          <rect
             x="120"
             y="592.36"
             width="40"
             height="40"
             fill="none"
             id="rect152" />
          <rect
             x="120"
             y="632.36"
             width="40"
             height="40"
             fill="none"
             id="rect154" />
          <rect
             x="120"
             y="552.36"
             width="40"
             height="40"
             fill="none"
             id="rect156" />
          <rect
             x="120"
             y="672.36"
             width="40"
             height="40"
             fill="none"
             id="rect158" />
          <rect
             x="200"
             y="512.36"
             width="40"
             height="40"
             fill="none"
             id="rect160" />
          <rect
             x="200"
             y="592.36"
             width="40"
             height="40"
             fill="none"
             id="rect162" />
          <rect
             x="200"
             y="632.36"
             width="40"
             height="40"
             fill="none"
             id="rect164" />
          <rect
             x="200"
             y="552.36"
             width="40"
             height="40"
             fill="none"
             id="rect166" />
          <rect
             x="200"
             y="672.36"
             width="40"
             height="40"
             fill="none"
             id="rect168" />
          <rect
             x="280"
             y="512.36"
             width="40"
             height="40"
             fill="none"
             id="rect170" />
          <rect
             x="280"
             y="592.36"
             width="40"
             height="40"
             fill="none"
             id="rect172" />
          <rect
             x="280"
             y="632.36"
             width="40"
             height="40"
             fill="none"
             id="rect174" />
          <rect
             x="280"
             y="552.36"
             width="40"
             height="40"
             fill="none"
             id="rect176" />
          <rect
             x="280"
             y="672.36"
             width="40"
             height="40"
             fill="none"
             id="rect178" />
          <rect
             x="160"
             y="512.36"
             width="40"
             height="40"
             fill="none"
             id="rect180" />
          <rect
             x="160"
             y="592.36"
             width="40"
             height="40"
             fill="none"
             id="rect182" />
          <rect
             x="160"
             y="632.36"
             width="40"
             height="40"
             fill="none"
             id="rect184" />
          <rect
             x="160"
             y="552.36"
             width="40"
             height="40"
             fill="none"
             id="rect186" />
          <rect
             x="160"
             y="672.36"
             width="40"
             height="40"
             fill="none"
             id="rect188" />
          <rect
             x="240"
             y="512.36"
             width="40"
             height="40"
             fill="none"
             id="rect190" />
          <rect
             x="240"
             y="592.36"
             width="40"
             height="40"
             fill="none"
             id="rect192" />
          <rect
             x="240"
             y="632.36"
             width="40"
             height="40"
             fill="none"
             id="rect194" />
          <rect
             x="240"
             y="552.36"
             width="40"
             height="40"
             fill="none"
             id="rect196" />
          <rect
             x="240"
             y="672.36"
             width="40"
             height="40"
             fill="none"
             id="rect198" />
          <rect
             x="120"
             y="712.36"
             width="40"
             height="40"
             fill="none"
             id="rect200" />
          <rect
             x="200"
             y="712.36"
             width="40"
             height="40"
             fill="none"
             id="rect202" />
          <rect
             x="280"
             y="712.36"
             width="40"
             height="40"
             fill="none"
             id="rect204" />
          <rect
             x="160"
             y="712.36"
             width="40"
             height="40"
             fill="none"
             id="rect206" />
          <rect
             x="240"
             y="712.36"
             width="40"
             height="40"
             fill="none"
             id="rect208" />
          <rect
             x="320"
             y="552.36"
             width="40"
             height="40"
             fill="none"
             id="rect210" />
          <rect
             x="320"
             y="592.36"
             width="40"
             height="40"
             fill="none"
             id="rect212" />
          <rect
             x="320"
             y="672.36"
             width="40"
             height="40"
             fill="none"
             id="rect214" />
          <rect
             x="320"
             y="512.36"
             width="40"
             height="40"
             fill="none"
             id="rect216" />
          <rect
             x="320"
             y="632.36"
             width="40"
             height="40"
             fill="none"
             id="rect218" />
          <rect
             x="320"
             y="712.36"
             width="40"
             height="40"
             fill="none"
             id="rect220" />
          <rect
             x="150"
             y="542.36"
             width="180"
             height="180"
             fill="none"
             id="rect222" />
          <g
             transform="matrix(.37344 0 0 .37344 4.4375 1028.8)"
             id="g226">
            <path
               d="m0 0h48v48h-48z"
               fill="none"
               id="path224" />
          </g>
          <g
             transform="matrix(.36471 0 0 .36471 4.8146 1028.8)"
             id="g230">
            <path
               d="m0 0h48v48h-48z"
               fill="none"
               id="path228" />
          </g>
          <g
             transform="matrix(.41585 0 0 .41585 79.055 989.88)"
             id="g240">
            <g
               transform="matrix(.062269 0 0 .062269 -26.473 173.71)"
               id="g238">
              <g
                 transform="matrix(38.618 0 0 38.618 13804 -12696)"
                 id="g236">
                <g
                   transform="matrix(.71436 0 0 .71436 -375.49 176.57)"
                   id="g234">
                  <path
                     transform="matrix(1.3999 0 0 1.3999 525.63 -247.17)"
                     d="m490.56 95.75c-121.72 0.18504-342.34 0.090577-468.16 0.09375-1.5548 6.9739-2.4062 14.232-2.4062 21.688v76.344c139.06 0.49354 331.32 0.2554 472.97 0.25v-76.594c0-7.4875-0.8386-14.78-2.4062-21.781zm-307.19 197.94c-52.495-3e-3 -106.38 0.11982-163.38 0.375v92.844c191.76-0.26331 282.43-0.0926 472.97-0.21875v-92.25c-109.29-0.35498-208.43-0.74426-309.59-0.75z"
                     opacity="0"
                     id="path232" />
                </g>
              </g>
            </g>
          </g>
          <path
             d="m23.015 1049.6c0.6218 0 1.123-0.5012 1.123-1.123v-0.3125c0 0.6218-0.5012 1.123-1.123 1.123h-19.082c-0.6218 0-1.123-0.5012-1.123-1.123v0.3125c0 0.6218 0.5012 1.123 1.123 1.123h19.082z"
             fill="#212121"
             opacity=".2"
             id="path242" />
        </g>
        <g
           transform="translate(-.0093746 -1025.5)"
           fill="#fff"
           id="g260">
          <rect
             transform="translate(-12.489 953.1)"
             x="22.03"
             y="77.934"
             width="1.1225"
             height="2.245"
             id="rect246" />
          <path
             transform="translate(0 1025.4)"
             d="m8.9688 6.75c-0.49023 0.019644-0.875 0.4872-0.875 1.0938v11.25c0 0.6191 0.40176 1.125 0.90625 1.125h8.9688c0.50449 0 0.90625-0.5059 0.90625-1.125v-11.25c0-0.6191-0.40176-1.0938-0.90625-1.0938v1.6875h-2.25v-1.6875h-1.125v1.6875h-2.25v-1.6875h-1.125v1.6875h-2.25v-1.6875zm0 3.375h9v8.9688h-9z"
             id="path248" />
          <rect
             x="12.909"
             y="1031"
             width="1.1225"
             height="2.245"
             id="rect250" />
          <rect
             x="16.276"
             y="1031"
             width="1.1225"
             height="2.245"
             id="rect252" />
          <rect
             transform="translate(0 1025.4)"
             x="10.664"
             y="12.358"
             width="5.6125"
             height="1.1225"
             id="rect254" />
          <rect
             x="10.664"
             y="1040"
             width="5.6125"
             height="1.1225"
             id="rect256" />
          <rect
             x="10.664"
             y="1042.3"
             width="5.6125"
             height="1.1225"
             id="rect258" />
        </g>
        <g
           display="none"
           fill="none"
           id="g268">
          <rect
             transform="rotate(90)"
             x="7.3342"
             y="-19.616"
             width="12.282"
             height="12.282"
             display="inline"
             stroke="#000"
             stroke-width=".065984"
             id="rect262" />
          <rect
             x="6.7726"
             y="8.112"
             width="13.405"
             height="10.726"
             stroke="#5261ff"
             stroke-linecap="round"
             stroke-linejoin="round"
             stroke-width=".06524"
             id="rect264" />
          <rect
             transform="rotate(90)"
             x="6.7726"
             y="-18.838"
             width="13.405"
             height="10.726"
             display="inline"
             stroke="#0f0"
             stroke-linecap="round"
             stroke-linejoin="round"
             stroke-width=".06524"
             id="rect266" />
        </g>
      </g>
      <g
         transform="matrix(13.778 0 0 13.778 424.98 -14022)"
         fill="#fff"
         id="g286">
        <rect
           transform="translate(-12.489 953.1)"
           x="22.03"
           y="77.934"
           width="1.1225"
           height="2.245"
           id="rect272" />
        <path
           transform="translate(0 1025.4)"
           d="m8.9688 6.75c-0.49023 0.019644-0.875 0.4872-0.875 1.0938v11.25c0 0.6191 0.40176 1.125 0.90625 1.125h8.9688c0.50449 0 0.90625-0.5059 0.90625-1.125v-11.25c0-0.6191-0.40176-1.0938-0.90625-1.0938v1.6875h-2.25v-1.6875h-1.125v1.6875h-2.25v-1.6875h-1.125v1.6875h-2.25v-1.6875zm0 3.375h9v8.9688h-9z"
           id="path274" />
        <rect
           x="12.909"
           y="1031"
           width="1.1225"
           height="2.245"
           id="rect276" />
        <rect
           x="16.276"
           y="1031"
           width="1.1225"
           height="2.245"
           id="rect278" />
        <rect
           transform="translate(0 1025.4)"
           x="10.664"
           y="12.358"
           width="5.6125"
           height="1.1225"
           id="rect280" />
        <rect
           x="10.664"
           y="1040"
           width="5.6125"
           height="1.1225"
           id="rect282" />
        <rect
           x="10.664"
           y="1042.3"
           width="5.6125"
           height="1.1225"
           id="rect284" />
      </g>
    </g>
  </g>
  <g
     display="none"
     fill="none"
     id="g298">
    <rect
       transform="rotate(90)"
       x="7.3342"
       y="-19.616"
       width="12.282"
       height="12.282"
       display="inline"
       stroke="#000"
       stroke-width=".065984"
       id="rect292" />
    <rect
       x="6.7726"
       y="8.112"
       width="13.405"
       height="10.726"
       stroke="#5261ff"
       stroke-linecap="round"
       stroke-linejoin="round"
       stroke-width=".06524"
       id="rect294" />
    <rect
       transform="rotate(90)"
       x="6.7726"
       y="-18.838"
       width="13.405"
       height="10.726"
       display="inline"
       stroke="#0f0"
       stroke-linecap="round"
       stroke-linejoin="round"
       stroke-width=".06524"
       id="rect296" />
  </g>
</svg>
